Year,Month,Day,Time of Tweet,Text,Platform
2018,8,18,noon,"I feel sorry, I miss you here in the sea beach",Facebook
2022,6,8,noon,"Those who want to go, let them go",Instagram
2016,11,22,night,"Its night 2 am, feeling neutral",Facebook
2022,2,28,noon,"I don't care, who are you and what can you do",Instagram
2020,3,5,morning,"I'm come back home, my past job, its really good time for me",Facebook
2019,3,2,night,"oh Maya, I`m so sorry!! I hope you find her soon!!",Twitter
2019,11,30,morning,"Playing with kids, its amazing",Facebook
2016,7,1,morning,"Follow me, I will follow you too",Facebook
2023,1,15,noon,"Its amazing game, I playing everyday",Instagram
2019,11,18,morning,"I'm in the village now and there hardly found internate, feeling gloomy",Instagram
